[
  {
    "id": "1",
    "title": "Pizza for 20 people this friday, I will do a party and people need to eat.",
    "description": "Lorem ipsum dolor sit amet, consectetur adipiscing elit. Vivamus pretium est velit, sed varius lacus. Aliquam erat volutpat. Phasellus in eleifend odio. Duis cursus libero et sapien malesuada adipiscing aliquet justo placerat. Nulla vulputate sem ac lectus euismod a hendrerit quam faucibus.",
    "when": "Dec, 5th, 2016 / 21:30",
    "where": "London",
    "max_price": 100,
    "timedate": "1483709463",
    "time_ago_string": "3 min",
    "offers": "3 offers",
    "category": {
      "id": "1",
      "title": "Meal",
      "favor_wall_bgcolor1": "#b3a89a",
      "favor_wall_bgcolor2": "#998e80",
      "icon": "https://tonicastillo.bitbucket.io/images/AppIcons/white/meal.png"
    },
    "user": {
      "id": "1",
      "name": "Sean",
      "surname": "Gordon",
      "image": "https://www.fillmurray.com/180/180",
      "contacts_number": 234,
      "evaluation_1": 32,
      "evaluation_2": 35
    }
  },
  {
    "id": "2",
    "title": "Pizza for 20 people this friday, I will do a party and people need to eat.",
    "description": "Lorem ipsum dolor sit amet, consectetur adipiscing elit. Vivamus pretium est velit, sed varius lacus. Aliquam erat volutpat. Phasellus in eleifend odio. Duis cursus libero et sapien malesuada adipiscing aliquet justo placerat. Nulla vulputate sem ac lectus euismod a hendrerit quam faucibus.",
    "when": "Dec, 5th, 2016 / 21:30",
    "where": "London",
    "max_price": 100,
    "timedate": "1483709463",
    "time_ago_string": "3 min",
    "offers": "3 offers",
    "category": {
      "id": "1",
      "title": "Meal",
      "favor_wall_bgcolor1": "#d1c8bc",
      "favor_wall_bgcolor2": "#b3a99c",
      "icon": "https://tonicastillo.bitbucket.io/images/AppIcons/white/meal.png"
    },
    "user": {
      "id": "1",
      "name": "Sean",
      "surname": "Gordon",
      "image": "https://www.fillmurray.com/180/180",
      "contacts_number": 234,
      "evaluation_1": 46,
      "evaluation_2": 50
    }
  },
  {
    "id": "3",
    "title": "Pizza for 20 people this friday, I will do a party and people need to eat.",
    "description": "Lorem ipsum dolor sit amet, consectetur adipiscing elit. Vivamus pretium est velit, sed varius lacus. Aliquam erat volutpat. Phasellus in eleifend odio. Duis cursus libero et sapien malesuada adipiscing aliquet justo placerat. Nulla vulputate sem ac lectus euismod a hendrerit quam faucibus.",
    "when": "Dec, 5th, 2016 / 21:30",
    "where": "London",
    "max_price": 100,
    "timedate": "1483709463",
    "time_ago_string": "3 min",
    "offers": "3 offers",
    "category": {
      "id": "1",
      "title": "Meal",
      "favor_wall_bgcolor1": "#c3bbb0",
      "favor_wall_bgcolor2": "#a79e92",
      "icon": "https://tonicastillo.bitbucket.io/images/AppIcons/white/meal.png"
    },
    "user": {
      "id": "1",
      "name": "Sean",
      "surname": "Gordon",
      "image": "https://www.fillmurray.com/180/180",
      "contacts_number": 234,
      "evaluation_1": 46,
      "evaluation_2": 50
    }
  },
  {
    "id": "4",
    "title": "Pizza for 20 people this friday, I will do a party and people need to eat.",
    "description": "Lorem ipsum dolor sit amet, consectetur adipiscing elit. Vivamus pretium est velit, sed varius lacus. Aliquam erat volutpat. Phasellus in eleifend odio. Duis cursus libero et sapien malesuada adipiscing aliquet justo placerat. Nulla vulputate sem ac lectus euismod a hendrerit quam faucibus.",
    "when": "Dec, 5th, 2016 / 21:30",
    "where": "London",
    "max_price": 100,
    "timedate": "1483709463",
    "time_ago_string": "3 min",
    "offers": "3 offers",
    "category": {
      "id": "1",
      "title": "Meal",
      "favor_wall_bgcolor1": "#d1c8bc",
      "favor_wall_bgcolor2": "#b3a99c",
      "icon": "https://tonicastillo.bitbucket.io/images/AppIcons/white/meal.png"
    },
    "user": {
      "id": "1",
      "name": "Sean",
      "surname": "Gordon",
      "image": "https://www.fillmurray.com/180/180",
      "contacts_number": 234,
      "evaluation_1": 46,
      "evaluation_2": 50
    }
  },
  {
    "id": "5",
    "title": "Pizza for 20 people this friday, I will do a party and people need to eat.",
    "description": "Lorem ipsum dolor sit amet, consectetur adipiscing elit. Vivamus pretium est velit, sed varius lacus. Aliquam erat volutpat. Phasellus in eleifend odio. Duis cursus libero et sapien malesuada adipiscing aliquet justo placerat. Nulla vulputate sem ac lectus euismod a hendrerit quam faucibus.",
    "when": "Dec, 5th, 2016 / 21:30",
    "where": "London",
    "max_price": 100,
    "timedate": "1483709463",
    "time_ago_string": "3 min",
    "offers": "3 offers",
    "category": {
      "id": "1",
      "title": "Meal",
      "favor_wall_bgcolor1": "#c3bbb0",
      "favor_wall_bgcolor2": "#a79e92",
      "icon": "https://tonicastillo.bitbucket.io/images/AppIcons/white/meal.png"
    },
    "user": {
      "id": "1",
      "name": "Sean",
      "surname": "Gordon",
      "image": "https://www.fillmurray.com/180/180",
      "contacts_number": 234,
      "evaluation_1": 46,
      "evaluation_2": 50
    }
  }
]